{
  "page": 1,
  "total_results": 623,
  "total_pages": 32,
  "results": [
    {
      "vote_count": 5386,
      "id": 105,
      "video": false,
      "vote_average": 8,
      "title": "Back to the Future",
      "popularity": 8.48545,
      "poster_path": "\/pTpxQB1N0waaSc3OSn0e9oc8kx9.jpg",
      "original_language": "en",
      "original_title": "Back to the Future",
      "genre_ids": [
        12,
        35,
        878,
        10751
      ],
      "backdrop_path": "\/55LP95aktZlGn2uRKO15qEUrIfU.jpg",
      "adult": false,
      "overview": "Eighties teenager Marty McFly is accidentally sent back in time to 1955, inadvertently disrupting his parents' first meeting and attracting his mother's romantic interest. Marty must repair the damage to history by rekindling his parents' romance and - with the help of his eccentric inventor friend Doc Brown - return to 1985.",
      "release_date": "1985-07-03"
    },
    {
      "vote_count": 2822,
      "id": 89,
      "video": false,
      "vote_average": 7.6,
      "title": "Indiana Jones and the Last Crusade",
      "popularity": 6.408075,
      "poster_path": "\/4p1N2Qrt8j0H8xMHMHvtRxv9weZ.jpg",
      "original_language": "en",
      "original_title": "Indiana Jones and the Last Crusade",
      "genre_ids": [
        12,
        28
      ],
      "backdrop_path": "\/m3bEQlir8IWpmFocQBXWM5fkHri.jpg",
      "adult": false,
      "overview": "When Dr. Henry Jones Sr. suddenly goes missing while pursuing the Holy Grail, eminent archaeologist Indiana must team up with Marcus Brody, Sallah and Elsa Schneider to follow in his father's footsteps and stop the Nazis from recovering the power of eternal life.",
      "release_date": "1989-05-24"
    },
    {
      "vote_count": 1378,
      "id": 2493,
      "video": false,
      "vote_average": 7.6,
      "title": "The Princess Bride",
      "popularity": 5.561986,
      "poster_path": "\/gpxjoE0yvRwIhFEJgNArtKtaN7S.jpg",
      "original_language": "en",
      "original_title": "The Princess Bride",
      "genre_ids": [
        12,
        10751,
        14,
        35,
        10749
      ],
      "backdrop_path": "\/npIKgqpD8jbowpem9L3U4NUkEO3.jpg",
      "adult": false,
      "overview": "In this enchantingly cracked fairy tale, the beautiful Princess Buttercup and the dashing Westley must overcome staggering odds to find happiness amid six-fingered swordsmen, murderous princes, Sicilians and rodents of unusual size. But even death can't stop these true lovebirds from triumphing.",
      "release_date": "1987-09-18"
    },
    {
      "vote_count": 1851,
      "id": 106,
      "video": false,
      "vote_average": 7.3,
      "title": "Predator",
      "popularity": 5.429333,
      "poster_path": "\/bj7A0teF2TWxxNGZjWTXiGrvCu2.jpg",
      "original_language": "en",
      "original_title": "Predator",
      "genre_ids": [
        878,
        28,
        12,
        53
      ],
      "backdrop_path": "\/zWnab2rDPLAyVY5i6OUv9jPTzCc.jpg",
      "adult": false,
      "overview": "Dutch and his group of commandos are hired by the CIA to rescue downed airmen from guerillas in a Central American jungle. The mission goes well but as they return they find that something is hunting them. Nearly invisible, it blends in with the forest, taking trophies from the bodies of its victims as it goes along. Occasionally seeing through its eyes, the audience sees it is an intelligent alien hunter, hunting them for sport, killing them off one at a time.",
      "release_date": "1987-06-11"
    },
    {
      "vote_count": 950,
      "id": 942,
      "video": false,
      "vote_average": 6.7,
      "title": "Lethal Weapon 2",
      "popularity": 4.271944,
      "poster_path": "\/7XAusKpFNv8x9sHpFLAS2lWCT8l.jpg",
      "original_language": "en",
      "original_title": "Lethal Weapon 2",
      "genre_ids": [
        28,
        12,
        35,
        80,
        53
      ],
      "backdrop_path": "\/c4wwl1Xt1w0xAJqURKz0TRBwUGS.jpg",
      "adult": false,
      "overview": "In the opening chase, Martin Riggs and Roger Murtaugh stumble across a trunk full of Krugerrands. They follow the trail to a South African diplomat who's using his immunity to conceal a smuggling operation. When he plants a bomb under Murtaugh's toilet, the action explodes!",
      "release_date": "1989-07-07"
    },
    {
      "vote_count": 3402,
      "id": 165,
      "video": false,
      "vote_average": 7.4,
      "title": "Back to the Future Part II",
      "popularity": 4.167599,
      "poster_path": "\/k5dzvCQkXU2CAhLtlj9BHE7xmyK.jpg",
      "original_language": "en",
      "original_title": "Back to the Future Part II",
      "genre_ids": [
        12,
        35,
        10751,
        878
      ],
      "backdrop_path": "\/snLFUFzWUZCdYkAbhZlaGJxiY3I.jpg",
      "adult": false,
      "overview": "Marty and Doc are at it again in this wacky sequel to the 1985 blockbuster as the time-traveling duo head to 2015 to nip some McFly family woes in the bud. But things go awry thanks to bully Biff Tannen and a pesky sports almanac. In a last-ditch attempt to set things straight, Marty finds himself bound for 1955 and face to face with his teenage parents -- again.",
      "release_date": "1989-11-20"
    },
    {
      "vote_count": 1297,
      "id": 9340,
      "video": false,
      "vote_average": 7.4,
      "title": "The Goonies",
      "popularity": 4.091819,
      "poster_path": "\/bZUbpjwnarSHJK40W9sGpyedWhx.jpg",
      "original_language": "en",
      "original_title": "The Goonies",
      "genre_ids": [
        12,
        35,
        10751
      ],
      "backdrop_path": "\/qKeyO9gXaaK0g87tvvqOPK1siwc.jpg",
      "adult": false,
      "overview": "A young teenager named Mikey Walsh finds an old treasure map in his father's attic. Hoping to save their homes from demolition, Mikey and his friends Data Wang, Chunk Cohen, and Mouth Devereaux run off on a big quest to find the secret stash of Pirate One-Eyed Willie.",
      "release_date": "1985-06-06"
    },
    {
      "vote_count": 674,
      "id": 10999,
      "video": false,
      "vote_average": 6.4,
      "title": "Commando",
      "popularity": 4.06123,
      "poster_path": "\/ggVVcXvlLqFOK6lEkD8G2aDarDb.jpg",
      "original_language": "en",
      "original_title": "Commando",
      "genre_ids": [
        28,
        12,
        53
      ],
      "backdrop_path": "\/p8MHS8hyMmrZafKDMzIdESJb1rI.jpg",
      "adult": false,
      "overview": "John Matrix, the former leader of a special commando strike force that always got the toughest jobs done, is forced back into action when his young daughter is kidnapped. To find her, Matrix has to fight his way through an array of punks, killers, one of his former commandos, and a fully equipped private army. With the help of a feisty stewardess and an old friend, Matrix has only a few hours to overcome his greatest challenge: finding his daughter before she's killed.",
      "release_date": "1985-10-03"
    },
    {
      "vote_count": 775,
      "id": 1369,
      "video": false,
      "vote_average": 6.3,
      "title": "Rambo: First Blood Part II",
      "popularity": 4.034881,
      "poster_path": "\/l6zUaYqaQ5TFokesv3BPzBvSN0.jpg",
      "original_language": "en",
      "original_title": "Rambo: First Blood Part II",
      "genre_ids": [
        28,
        12,
        53,
        10752
      ],
      "backdrop_path": "\/2a8Dr2iHznBKjdpXceVRmpxQEgm.jpg",
      "adult": false,
      "overview": "John Rambo is released from prison by the government for a top-secret covert mission to the last place on Earth he'd want to return - the jungles of Vietnam.",
      "release_date": "1985-05-21"
    },
    {
      "vote_count": 1213,
      "id": 941,
      "video": false,
      "vote_average": 7,
      "title": "Lethal Weapon",
      "popularity": 4.021194,
      "poster_path": "\/r4njF5h9IN0y1ZKFP1hYFmZU3Rk.jpg",
      "original_language": "en",
      "original_title": "Lethal Weapon",
      "genre_ids": [
        12,
        28,
        35,
        53,
        80
      ],
      "backdrop_path": "\/hwDFUhO9SJdkJGaZBDoLMIwvoCo.jpg",
      "adult": false,
      "overview": "Veteran buttoned-down LAPD detective Roger Murtaugh is partnered with unhinged cop Martin Riggs, who -- distraught after his wife's death -- has a death wish and takes unnecessary risks with criminals at every turn. The odd couple embark on their first homicide investigation as partners, involving a young woman known to Murtaugh with ties to a drug and prostitution ring.",
      "release_date": "1987-03-06"
    },
    {
      "vote_count": 606,
      "id": 1370,
      "video": false,
      "vote_average": 5.6,
      "title": "Rambo III",
      "popularity": 3.997485,
      "poster_path": "\/oCD41FfUs1OMCdPaf5EcJ6dxxMW.jpg",
      "original_language": "en",
      "original_title": "Rambo III",
      "genre_ids": [
        28,
        12,
        53,
        10752
      ],
      "backdrop_path": "\/mx0x96S8ZCXXoSxFinMbyI1117f.jpg",
      "adult": false,
      "overview": "Combat has taken its toll on Rambo, but he's finally begun to find inner peace in a monastery. When Rambo's friend and mentor Col. Trautman asks for his help on a top secret mission to Afghanistan, Rambo declines but must reconsider when Trautman is captured.",
      "release_date": "1988-05-24"
    },
    {
      "vote_count": 649,
      "id": 9355,
      "video": false,
      "vote_average": 5.9,
      "title": "Mad Max Beyond Thunderdome",
      "popularity": 3.967959,
      "poster_path": "\/9ciqnBU2YlMtMrqNwRzhmaMeL9l.jpg",
      "original_language": "en",
      "original_title": "Mad Max Beyond Thunderdome",
      "genre_ids": [
        28,
        12,
        878
      ],
      "backdrop_path": "\/r3MhvwPC8zFBAv8HL5WBtl3F8cn.jpg",
      "adult": false,
      "overview": "Mad Max becomes a pawn in a decadent oasis of a technological society, and when exiled, becomes the deliverer of a colony of children.",
      "release_date": "1985-06-29"
    },
    {
      "vote_count": 298,
      "id": 175,
      "video": false,
      "vote_average": 7.6,
      "title": "The Big Blue",
      "popularity": 3.8913,
      "poster_path": "\/w4TWqa7SiXP0Hm4rkRnCfXwIeRK.jpg",
      "original_language": "fr",
      "original_title": "Le Grand Bleu",
      "genre_ids": [
        12,
        18,
        10749
      ],
      "backdrop_path": "\/eSZUjmpNSnQZ2Wp1IRdlbUpSAuz.jpg",
      "adult": false,
      "overview": "Two men answer the call of the ocean in this romantic fantasy-adventure.  Jacques (Jean-Marc Barr) and Enzo (Jean Reno) are a pair of friends who have been close since childhood, and who share a passion for the dangerous sport of free diving. Professional diver Jacques opted to follow in the footsteps of his father, who died at sea when Jacques was a boy; to the bewilderment of scientists, Jacques harbors a remarkable ability to adjust his heart rate and breathing pattern in the water, so that his vital signs more closely resemble that of dolphins than men (he even considers a school of dolphins as his extended family).  As Enzo persuades a reluctant Jacques to compete against him in a free diving contest -- determining who can dive deeper and longer without scuba gear -- Jacques meets Johana (Rosanna Arquette), a beautiful insurance investigator from America, and he finds that he must choose between his love for her and his love of the sea.",
      "release_date": "1988-05-11"
    },
    {
      "vote_count": 498,
      "id": 709,
      "video": false,
      "vote_average": 5.8,
      "title": "Licence to Kill",
      "popularity": 3.879054,
      "poster_path": "\/27EySoBH3oBuI6xat2QOquB9X8j.jpg",
      "original_language": "en",
      "original_title": "Licence to Kill",
      "genre_ids": [
        12,
        28,
        53
      ],
      "backdrop_path": "\/nSu6o7XZSkungSOXZ5axzgRH2en.jpg",
      "adult": false,
      "overview": "James Bond and his American colleague Felix Leiter arrest the drug lord Sanchez who succeeds in escaping and takes revenge on Felix and his wife. Bond knows but just one thing: revenge.",
      "release_date": "1989-07-07"
    },
    {
      "vote_count": 626,
      "id": 16859,
      "video": false,
      "vote_average": 7.6,
      "title": "Kiki's Delivery Service",
      "popularity": 3.696911,
      "poster_path": "\/d5gLpu8kqyPs27bh9IiCuwMDjDh.jpg",
      "original_language": "ja",
      "original_title": "\u9b54\u5973\u306e\u5b85\u6025\u4fbf",
      "genre_ids": [
        16,
        12,
        18,
        14
      ],
      "backdrop_path": "\/fSbiMnUXJ6rrSuf3MN7pFqUtws4.jpg",
      "adult": false,
      "overview": "A young witch, on her mandatory year of independent life, finds fitting into a new community difficult while she supports herself by running an air courier service.",
      "release_date": "1989-07-29"
    },
    {
      "vote_count": 637,
      "id": 6978,
      "video": false,
      "vote_average": 7,
      "title": "Big Trouble in Little China",
      "popularity": 3.668856,
      "poster_path": "\/yorjHTeWauQd81QeWoqMAHXAcCj.jpg",
      "original_language": "en",
      "original_title": "Big Trouble in Little China",
      "genre_ids": [
        28,
        12,
        35,
        14
      ],
      "backdrop_path": "\/qGdkBXrBnM8KsYcW4G6BgvgHePK.jpg",
      "adult": false,
      "overview": "When trucker, Jack Burton agreed to take his friend, Wang Chi to pick up his fiancee at the airport, he never expected to get involved in a supernatural battle between good and evil. Wang's fiancee has emerald green eyes, which make her a perfect target for immortal sorcerer, Lo Pan and his three invincible cronies. Lo Pan must marry a girl with green eyes so he can regain his physical form.",
      "release_date": "1986-05-30"
    },
    {
      "vote_count": 395,
      "id": 708,
      "video": false,
      "vote_average": 6.2,
      "title": "The Living Daylights",
      "popularity": 3.653317,
      "poster_path": "\/yEryMe58dx7zm1QBhQFeuYcv2aH.jpg",
      "original_language": "en",
      "original_title": "The Living Daylights",
      "genre_ids": [
        28,
        12,
        53
      ],
      "backdrop_path": "\/gt0TafbcheJeT9SFewDLqYWk3Sd.jpg",
      "adult": false,
      "overview": "James Bond helps a Russian General escape into the west. He soon finds out that the KGB wants to kill him for helping the General. A little while later the General is kidnapped from the Secret Service leading 007 to be suspicious.",
      "release_date": "1987-06-29"
    },
    {
      "vote_count": 548,
      "id": 12144,
      "video": false,
      "vote_average": 7,
      "title": "The Land Before Time",
      "popularity": 3.593108,
      "poster_path": "\/hkKSmDRnbKUBAyZszz9b4kcQhvt.jpg",
      "original_language": "en",
      "original_title": "The Land Before Time",
      "genre_ids": [
        16,
        12,
        10751
      ],
      "backdrop_path": "\/t9svFw203MlNfgWb62HEHsrUxTt.jpg",
      "adult": false,
      "overview": "An orphaned brontosaurus named Littlefoot sets off in search of the legendary Great Valley. A land of lush vegetation where the dinosaurs can thrive and live in peace. Along the way he meets four other young dinosaurs, each one a different species, and they encounter several obstacles as they learn to work together in order to survive.",
      "release_date": "1988-11-18"
    },
    {
      "vote_count": 736,
      "id": 2756,
      "video": false,
      "vote_average": 7.1,
      "title": "The Abyss",
      "popularity": 3.583967,
      "poster_path": "\/kRP5dGXDhKt7bDpXX4YBa4dRwlL.jpg",
      "original_language": "en",
      "original_title": "The Abyss",
      "genre_ids": [
        12,
        28,
        53,
        878
      ],
      "backdrop_path": "\/5mE9rLSjtjGdl1q2tSsqMAydE4F.jpg",
      "adult": false,
      "overview": "A civilian oil rig crew is recruited to conduct a search and rescue effort when a nuclear submarine mysteriously sinks. One diver soon finds himself on a spectacular odyssey 25,000 feet below the ocean's surface where he confronts a mysterious force that has the power to change the world or destroy it.",
      "release_date": "1989-08-09"
    },
    {
      "vote_count": 410,
      "id": 1648,
      "video": false,
      "vote_average": 6.7,
      "title": "Bill & Ted's Excellent Adventure",
      "popularity": 3.450019,
      "poster_path": "\/b2yKJ1STPklVSRtso2Tg4TPXK7u.jpg",
      "original_language": "en",
      "original_title": "Bill & Ted's Excellent Adventure",
      "genre_ids": [
        12,
        35,
        878
      ],
      "backdrop_path": "\/ca925HbhdgTdjEs3VGg3SX0k86a.jpg",
      "adult": false,
      "overview": "In the small town of San Dimas, a few miles away from Los Angeles, there are two nearly brain dead teenage boys going by the names of Bill S, Preston ESQ. and Ted Theodore Logan, they have a dream together of starting their own rock and roll band called the \"Wyld Stallyns\". Unfortunately, they are still in high school and on the verge of failing out of their school as well, and if they do not pass their upcoming history report, they will be separated as a result of Ted's father sending him to military school. But, what Bill and Ted do not know is that they must stay together to save the future. So, a man from the future named Rufus came to help them pass their report. So, both Bill and Ted decided to gather up historical figures which they need for their report. They are hoping that this will help them pass their report so they can stay together.",
      "release_date": "1989-02-17"
    }
  ]
}